KoLab R Study Week 1
…
## # A tibble: 1 x 19
##      ID gender WB WB WB    
##   <dbl>  <dbl>  <dbl>  <dbl>  <dbl>    <dbl>    <dbl> <chr>             <dbl>
## 1     1      1      8     14     23       90       66              58
## # ... with 10 more variables:  <dbl>,  <dbl>,
## #    <dbl>,  <dbl>,  <dbl>,  <dbl>,
## #    <dbl>,  <dbl>,  <dbl>,  <dbl>

R 

Indexing

w1[, 1]

## # A tibble: 116 x 1
##       ID
##    <dbl>
##  1     1
##  2     2
##  3     3
##  4     4
##  5     5
##  6     6
##  7     7
##  8     8
##  9     9
## 10    10
## # ... with 106 more rows
…
R 

Indexing

     (-) 

# WB   
w1[, -3]

## # A tibble: 116 x 18
##       ID gender WB WB    
##    <dbl>  <dbl>  <dbl>  <dbl>    <dbl>    <dbl> <chr>             <dbl>
##  1     1      1     14     23       90       66              58
##  2     2      1     13     17       96       57  ~         50
##  3     3      1     12     10       96       53  ~         60
##  4     4      1     18     23      110       69  ~         60
##  5     5      1     25     29      123       63  ~         55
##  6     6      1     23     28      120       72  ~         62
##  7     7      1      6     15      105       57  ~         55
##  8     8      1      3     10       63       34              47
##  9     9      1     13     16      112       64  ~         67
## 10    10      1      3      9       93       52  ~         52
## # ... with 106 more rows, and 10 more variables:  <dbl>,
## #    <dbl>,  <dbl>,  <dbl>,  <dbl>,
## #    <dbl>,  <dbl>,  <dbl>,  <dbl>,
## #    <dbl>
R 

Indexing

Quiz. 2-17    

R 

Indexing

Quiz. 2-17    

w1[, -(2:17)]

## # A tibble: 116 x 3
##       ID  
##    <dbl>    <dbl>      <dbl>
##  1     1       57        126
##  2     2       57        149
##  3     3       83         85
##  4     4       35        123
##  5     5       44        158
##  6     6       40        148
##  7     7       63        152
##  8     8       70        121
##  9     9       67        148
## 10    10       71         71
## # ... with 106 more rows
R 

Indexing

Quiz. 3, 5, 7    

R 

Indexing

Quiz. 3, 5, 7    

w1[, -c(3, 5, 7)]

## # A tibble: 116 x 16
##       ID gender WB     
##    <dbl>  <dbl>  <dbl>    <dbl> <chr>             <dbl>      <dbl>    <dbl>
##  1     1      1     14       90              58         30        8
##  2     2      1     13       96  ~         50         32       10
##  3     3      1     12       96  ~         60         29       11
##  4     4      1     18      110  ~         60         36        7
##  5     5      1     25      123  ~         55         36        5
##  6     6      1     23      120  ~         62         27        5
##  7     7      1      6      105  ~         55         28        8
##  8     8      1      3       63              47         35        8
##  9     9      1     13      112  ~         67         42        8
## 10    10      1      3       93  ~         52         29        9
## # ... with 106 more rows, and 8 more variables:  <dbl>,
## #    <dbl>,  <dbl>,  <dbl>,  <dbl>,
## #    <dbl>,  <dbl>,  <dbl>
…
